[gd_resource type="DynamicFont" load_steps=2 format=2]

[sub_resource type="DynamicFontData" id=1]
font_path = "res://core/shared/fonts/zrnic.regular.ttf"

[resource]
size = 32
use_mipmaps = true
use_filter = true
font_data = SubResource( 1 )
