[gd_scene load_steps=3 format=2]

[ext_resource path="res://core/shared/effects/fade_effect.gd" type="Script" id=1]
[ext_resource path="res://core/shared/effects/black.png" type="Texture" id=2]



[node name="fade_effect" type="Node2D"]
script = ExtResource( 1 )

[node name="texture" type="TextureRect" parent="."]
anchor_right = 1.0
anchor_bottom = 1.0
margin_right = 1000.0
margin_bottom = 1000.0
grow_horizontal = 2
grow_vertical = 2
rect_min_size = Vector2( 2000, 2000 )
texture = ExtResource( 2 )
expand = true
stretch_mode = 1

[node name="tween" type="Tween" parent="."]
