[gd_scene load_steps=2 format=2]

[ext_resource path="res://core/game.tscn" type="PackedScene" id=1]

[node name="game" instance=ExtResource( 1 )]

[node name="grid" parent="game/Container" index="2"]
starting_point = Vector2( 0, 6 )

[node name="obstacle_tiles" parent="game/Container/grid" index="1"]
tile_data = PoolIntArray( 131076, 1610612737, 0, 131089, 1610612737, 0, 196612, 1610612740, 0, 196613, -1073741821, 0, 196614, -1073741821, 0, 196615, -1073741821, 0, 196616, -1073741821, 0, 196617, -1073741821, 0, 196618, -1073741821, 0, 196619, -1073741821, 0, 196620, -1073741821, 0, 196621, -1073741821, 0, 196622, -1073741821, 0, 196623, -1073741821, 0, 196624, -1073741821, 0, 196625, 1610612740, 0, 589828, -1610612735, 0, 589829, -1610612735, 0, 589830, -1610612735, 0, 589831, -1610612735, 0, 589832, -1610612735, 0, 589833, -1610612735, 0, 589834, -1610612735, 0, 589835, -1610612735, 0, 589836, -1610612735, 0, 589837, -1610612735, 0, 589838, -1610612735, 0, 589839, -1610612735, 0, 589840, -1610612735, 0, 589841, -1610612735, 0, 786436, 1610612737, 0, 786439, 1610612740, 0, 786446, 1610612740, 0, 786449, 1610612737, 0, 851972, 1610612737, 0, 851975, 1610612739, 0, 851982, 1610612739, 0, 851985, 1610612737, 0, 917508, 1610612737, 0, 917511, 1610612739, 0, 917518, 1610612739, 0, 917521, 1610612737, 0, 983044, 1610612737, 0, 983047, 1610612739, 0, 983054, 1610612739, 0, 983057, 1610612737, 0, 1048580, 1610612737, 0, 1048583, 1610612740, 0, 1048584, -1073741821, 0, 1048585, -1073741821, 0, 1048586, -1073741821, 0, 1048587, -1073741821, 0, 1048588, -1073741821, 0, 1048589, -1073741821, 0, 1048590, 1610612740, 0, 1048593, 1610612737, 0, 1114116, 1610612737, 0, 1114129, 1610612737, 0, 1179652, 1610612737, 0, 1179665, 1610612737, 0, 1245188, 1610612737, 0, 1245201, 1610612737, 0, 1310724, 1610612737, 0, 1310727, -1073741820, 0, 1310728, -1610612733, 0, 1310729, -1610612733, 0, 1310730, -1610612733, 0, 1310731, -1610612733, 0, 1310732, -1610612733, 0, 1310733, -1610612733, 0, 1310734, -1610612732, 0, 1310737, 1610612737, 0, 1376260, 1610612737, 0, 1376263, 3, 0, 1376270, 3, 0, 1376273, 1610612737, 0, 1441796, 1610612737, 0, 1441799, 3, 0, 1441806, 3, 0, 1441809, 1610612737, 0, 1507332, 1610612737, 0, 1507335, 3, 0, 1507342, 3, 0, 1507345, 1610612737, 0, 1572868, 1610612737, 0, 1572871, 4, 0, 1572878, 4, 0, 1572881, 1610612737, 0, 1769476, -1610612735, 0, 1769477, -1610612735, 0, 1769478, -1610612735, 0, 1769479, -1610612735, 0, 1769480, -1610612735, 0, 1769481, -1610612735, 0, 1769482, -1610612735, 0, 1769483, -1610612735, 0, 1769484, -1610612735, 0, 1769485, -1610612735, 0, 1769486, -1610612735, 0, 1769487, -1610612735, 0, 1769488, -1610612735, 0, 1769489, -1610612735, 0, 2162692, 4, 0, 2162693, -1073741821, 0, 2162694, -1073741821, 0, 2162695, -1073741821, 0, 2162696, -1073741821, 0, 2162697, -1073741821, 0, 2162698, -1073741821, 0, 2162699, -1073741821, 0, 2162700, -1073741821, 0, 2162701, -1073741821, 0, 2162702, -1073741821, 0, 2162703, -1073741821, 0, 2162704, -1073741821, 0, 2162705, 4, 0, 2228228, 1610612737, 0, 2228241, 1610612737, 0 )
