[gd_scene load_steps=2 format=2]

[ext_resource path="res://core/level/level_scenes/level_none.tscn" type="PackedScene" id=1]

[node name="game" instance=ExtResource( 1 )]

[node name="grid" parent="game/Container" index="2"]
starting_point = Vector2( 1, 18 )

[node name="obstacle_tiles" parent="game/Container/grid" index="1"]
tile_data = PoolIntArray( -65531, -1610612736, 0, -65530, -1610612736, 0, -65529, -1610612736, 0, -65528, -1610612736, 0, -65527, -1610612736, 0, -65526, -1610612736, 0, -65525, -1610612736, 0, -65524, -1610612736, 0, -65523, -1610612736, 0, -65522, -1610612736, 0, -65521, -1610612736, 0, -65520, -1610612736, 0, 720895, 0, 0, 655382, 1610612736, 0, 786431, 0, 0, 720918, 1610612736, 0, 851967, 0, 0, 786454, 1610612736, 0, 917503, 0, 0, 851990, 1610612736, 0, 983039, 0, 0, 917526, 1610612736, 0, 1048575, 0, 0, 983062, 1610612736, 0, 1114111, 0, 0, 1048598, 1610612736, 0, 1179647, 0, 0, 1114134, 1610612736, 0, 1245183, 0, 0, 1179670, 1610612736, 0, 1310719, 0, 0, 1245206, 1610612736, 0, 1376255, 0, 0, 1310742, 1610612736, 0, 1441791, 0, 0, 1376278, 1610612736, 0, 1507327, 0, 0, 1441814, 1610612736, 0, 1572863, 0, 0, 1507350, 1610612736, 0, 1638399, 0, 0, 1572886, 1610612736, 0, 1703935, 0, 0, 1638422, 1610612736, 0, 1769471, 0, 0, 1703958, 1610612736, 0, 2424837, -1073741824, 0, 2424838, -1073741824, 0, 2424839, -1073741824, 0, 2424840, -1073741824, 0, 2424841, -1073741824, 0, 2424842, -1073741824, 0, 2424843, -1073741824, 0, 2424844, -1073741824, 0, 2424845, -1073741824, 0, 2424846, -1073741824, 0, 2424847, -1073741824, 0, 2424848, -1073741824, 0 )
