[gd_scene load_steps=2 format=2]

[ext_resource path="res://core/game.tscn" type="PackedScene" id=1]

[node name="game" instance=ExtResource( 1 )]

[node name="grid" parent="game/Container" index="2"]
starting_point = Vector2( 8, 18 )

[node name="obstacle_tiles" parent="game/Container/grid" index="1"]
tile_data = PoolIntArray( 65537, -2147483644, 0, 65538, -536870911, 0, 65539, -536870911, 0, 65540, -536870911, 0, 65541, -536870911, 0, 131073, 536870915, 0, 131092, 1, 0, 196609, 536870913, 0, 196628, 1, 0, 262145, 536870913, 0, 262164, 1, 0, 327700, 1610612739, 0, 393233, -1073741820, 0, 393234, -1073741823, 0, 393235, -1073741823, 0, 393236, -1610612732, 0, 458769, 1610612739, 0, 655377, 1610612739, 0, 720910, -1073741820, 0, 720911, -1610612735, 0, 720912, -1610612735, 0, 720913, -1610612732, 0, 786446, 1610612739, 0, 851982, 536870913, 0, 917518, 536870913, 0, 983054, 1610612739, 0, 1048587, 536870916, 0, 1048588, -2147483645, 0, 1048589, -1073741823, 0, 1048590, -1610612732, 0, 1114123, 1073741828, 0, 1310731, 536870913, 0, 1376264, -1073741820, 0, 1376265, -1610612735, 0, 1376266, -2147483645, 0, 1376267, 1073741828, 0, 1441800, 1610612739, 0, 1507336, 1, 0, 1572872, 1, 0, 1638408, 1610612739, 0, 1703941, 536870916, 0, 1703942, -2147483645, 0, 1703943, -1073741823, 0, 1703944, -1610612732, 0, 1769477, 1073741828, 0, 1966085, 536870916, 0, 2031617, -1073741820, 0, 2031618, -1610612735, 0, 2031619, -1610612735, 0, 2031620, -2147483645, 0, 2031621, 1073741828, 0, 2031636, 1073741825, 0, 2097153, 1610612739, 0, 2097172, 1073741825, 0, 2162689, 1, 0, 2162708, 1073741825, 0, 2228225, 1, 0, 2228244, 536870915, 0, 2293777, -536870911, 0, 2293778, -536870911, 0, 2293779, -536870911, 0, 2293780, -536870908, 0 )
